{
  "type": "service_account",
  "project_id": "salon-appointment-5429c",
  "private_key_id": "b31e18012c32c7c6ceaf9ce2fe999f8e894566ce",
  "private_key": "-----BEGIN PRIVATE KEY-----\nMIIEvQIBADANBgkqhkiG9w0BAQEFAASCBKcwggSjAgEAAoIBAQDCn6ucuCtOptXx\ngqsgZjxfsaVu5dpJJaQDzIwpzWxKIHGeKOjPfeg3JFGjlpdPfcvEUMfreXRbzbF6\nHpTeSn7RVpGT5kt7p4PD7nfP3KLyu8fJE7ABKwxviN7biY8+n1tt611mOY4T8Uy7\n0wGPMDwgzkEoysEZbFm950pwvdp0SKhjT6nuCZQwlfJefGVmbGUG21Okca4xI3yb\njxC/MD6dns9ZnejpmrDrvx/J4HHLAXHnJ6bAg49sK36AZFbz/UKyTNpucdXFVOtH\nrTKZxJ/iDP2JxgO1iYp7sVnPGlWI9tTvDqbflfoeSXRUBblZmbDC804AKtxRs+GW\n2rFZ7CWzAgMBAAECggEAXaTxMFunLtV0nJuYVmMKyqqR5J3BHa/4ToGlsVlvsO0S\nbhzWBDxbNukJRRKo5G0tVdzejM0oMSH0MsOzMpAanAQw0L6e9DUCYAyGZqQNXYj/\n1J7d8XnyplnvjSePnnyTw/xbONwZojvZBYi+N9ToIYrMbGG+bsqlFYxL05puGcOi\ntAkkQx3oa0hiihRpNnn/ZDEF4yN5Kr9tEdKZ158e40DT9dJbyOtSUEovkvRAuJ5J\nxOke21brsyFBWBE7kfbDAJ2COxOFRxlUUueaiMs6p1ixtMrJTvB7rEIIVpeJYq/2\nd4kezYu/bg6qbxhku+QeAlVdJxwvTtja5q4cKatSpQKBgQDvvrgKIU94J4pCnYjW\nrRwRK8cZC+Tjmrv+mfdAxZVDDZ2tMgcfeM7ZFxbm4NbcExZt8UFm6ed0dRIIjhsM\nJq0rEqht9m4RnXVGIMoBgi/6B4C7gbjl+BhwhnUOY8o0gAEthWVB/g4vUh61ZV/o\n/YiPVKyyFY+Pam04ituVJ4Fs1wKBgQDP0ca2WKlfjM/nigwiKYMA3Um0LdblsWF7\naAVW/EXHzx5pF3Ft7q/Iv/zgpHR8YMeWgNZ3EmQc3VDhf/FZW0rALHmrbx1t9Uyq\nxZ9CBhVeaV8Gr7lAt1F1jzTciaoa2ujTYbmtPhdl2wTK6KInZvu2DLwgV9pAMaJ9\nMf+ZOKj2hQKBgQDX/DgNWEkh9G1I6me3D6mzhn8N/3sr2eD31Hm+LsLz77ZXrDRi\nlBG13mlRgsnO5ptUXP8Q2jUc48NlVbDkV4u2vE5lEpfC4toeXbffeAwE8vF0+785\n3zMVXOzkE969QXzOJ9k7hMf+tbrYrQWk/5QhnKUgou/8wmK3h9GfJEIjbQKBgFx4\nYiv27X5noIbNJTL6N6Fl1YrHrsxLji2kDmQzIjWTElv+o2kgALWZv8KRSoehZI2y\nTDt1QniZfYipLlHtTiiOYaEHcxffQzrlbkSpgk6dIjxOambCawudKg9LbhY++8Q6\nwqy0aSLYPpyuwKA5sZzCs97MWH+h1kRQwAOEc6IlAoGATUg+4DCEVTlbV0/YWiey\nP+Ytmj3XUObQvc0cqa7Hs1WtWhjlnMRCXj2Ha7a2E11kFwXUVAWUOqO9WoMPtcbd\nde+lWbvyE5dPp+dN/9yxbbKOnc/YOaVX2VPHqLtBz5gBT54ql/g5RLhBh2kulbaq\npbEJF6fT6NWuS5yH5sSEttU=\n-----END PRIVATE KEY-----\n",
  "client_email": "firebase-adminsdk-o0er4@salon-appointment-5429c.iam.gserviceaccount.com",
  "client_id": "116306842570653569005",
  "auth_uri": "https://accounts.google.com/o/oauth2/auth",
  "token_uri": "https://oauth2.googleapis.com/token",
  "auth_provider_x509_cert_url": "https://www.googleapis.com/oauth2/v1/certs",
  "client_x509_cert_url": "https://www.googleapis.com/robot/v1/metadata/x509/firebase-adminsdk-o0er4%40salon-appointment-5429c.iam.gserviceaccount.com"
}
